/home/soyae/NetBeansProjects/ExceptionHandling/src/main/java/com/mycompany/exceptionhandling/Titan.java
/home/soyae/NetBeansProjects/ExceptionHandling/src/main/java/com/mycompany/exceptionhandling/Healer.java
/home/soyae/NetBeansProjects/ExceptionHandling/src/main/java/com/mycompany/exceptionhandling/Main.java
/home/soyae/NetBeansProjects/ExceptionHandling/src/main/java/com/mycompany/exceptionhandling/Character.java
/home/soyae/NetBeansProjects/ExceptionHandling/src/main/java/com/mycompany/exceptionhandling/Warrior.java
/home/soyae/NetBeansProjects/ExceptionHandling/src/main/java/com/mycompany/exceptionhandling/Magician.java
